Final Project - Project 1
…
GOT <- separate(GOT, name, c("FirstName", "LastName"))

## Warning: Expected 2 pieces. Additional pieces discarded in 202 rows [1, 8, 12,
## 13, 14, 15, 26, 29, 30, 32, 47, 54, 86, 87, 89, 91, 100, 104, 109, 110, ...].

## Warning: Expected 2 pieces. Missing pieces filled with `NA` in 586 rows [9, 11,
## 17, 19, 20, 24, 25, 27, 28, 33, 35, 37, 39, 41, 43, 44, 45, 46, 48, 50, ...].

GOT2 <- GOT %>% filter(!is.na(FirstName)) %>% group_by(male, 
    FirstName) %>% summarise(mean_isPopular = mean(isPopular, 
    na.rm = TRUE))
GOT2

## # A tibble: 1,544 x 3
## # Groups:   male [2]
##     male FirstName  mean_isPopular
##    <int> <chr>               <dbl>
##  1     0 Aegon                   0
##  2     0 Aelinor                 0
##  3     0 Aemma                   0
##  4     0 Aethan                  0
##  5     0 Aethelmure              0
##  6     0 Aggo                    0
##  7     0 Aglantine               0
##  8     0 Agrivane                0
##  9     0 Alannys                 0
## 10     0 Alaric                  0
## # … with 1,534 more rows
…
mean_name <- mean(GOT$FirstName)

## Warning in mean.default(GOT$FirstName): argument is not numeric or logical:
## returning NA

GOT2_long <- GOT2_wide %>% pivot_longer(cols = mean_name, names_to = "male", 
    values_to = "isPopular")

GOT2_long

## # A tibble: 2,884 x 2
## # Groups:   male [1,442]
##    male       isPopular
##    <chr>          <dbl>
##  1 male               0
##  2 Aegon              0
##  3 Aelinor            0
##  4 Aemma              0
##  5 Aethan             0
##  6 Aethelmure         0
##  7 Aggo               0
##  8 Aglantine          0
##  9 Agrivane           0
## 10 Alannys            0
## # … with 2,874 more rows
head(Names)

##   YEAR Gender RANK     Name Count
## 1 2005 Female    1    EMILY  3268
## 2 2005 Female    2   ASHLEY  2770
## 3 2005 Female    3 SAMANTHA  2483
## 4 2005 Female    4 ISABELLA  2333
## 5 2005 Female    5      MIA  2172
## 6 2005 Female    6  NATALIE  2035

Names2 <- Names %>% filter(!is.na(Name)) %>% group_by(YEAR, Name) %>% 
    summarise(mean_Number = mean(RANK, na.rm = TRUE))
Names2

## # A tibble: 651 x 3
## # Groups:   YEAR [13]
##     YEAR Name      mean_Number
##    <int> <fct>           <dbl>
##  1  2005 ABIGAIL            15
##  2  2005 ALEXANDER          14
##  3  2005 ALEXIS             21
##  4  2005 ALYSSA              9
##  5  2005 ANDREA             22
##  6  2005 ANDREW              7
##  7  2005 ANGEL               3
##  8  2005 ANGELINA           23
##  9  2005 ANTHONY             2
## 10  2005 ASHLEY              2
## # … with 641 more rows
…
mean_Name <- mean(Names$Name)

## Warning in mean.default(Names$Name): argument is not numeric or logical:
## returning NA

Names2_long <- Names2_wide %>% pivot_longer(cols = mean_Name, 
    names_to = "YearofBirth", values_to = "RANK")

Names2_long

## # A tibble: 1,235 x 2
##    YearofBirth  RANK
##    <chr>       <dbl>
##  1 YEAR         2005
##  2 ABIGAIL        15
##  3 ALEXANDER      14
##  4 ALEXIS         21
##  5 ALYSSA          9
##  6 ANDREA         22
##  7 ANDREW          7
##  8 ANGEL           3
##  9 ANGELINA       23
## 10 ANTHONY         2
## # … with 1,225 more rows
…
2. Joining/Merging (8 pts)

head(Names)

##   YEAR Gender RANK     Name Count
## 1 2005 Female    1    EMILY  3268
## 2 2005 Female    2   ASHLEY  2770
## 3 2005 Female    3 SAMANTHA  2483
## 4 2005 Female    4 ISABELLA  2333
## 5 2005 Female    5      MIA  2172
## 6 2005 Female    6  NATALIE  2035

GOT %>% group_by(FirstName) %>% summarise(isPopular = n())

## # A tibble: 1,441 x 2
##    FirstName isPopular
##    <chr>         <int>
##  1 Abelar            1
##  2 Addam             5
##  3 Addison           1
##  4 Aegon            12
##  5 Aegor             1
##  6 Aelinor           1
##  7 Aemma             1
##  8 Aemon             4
##  9 Aemond            1
## 10 Aenys             2
## # … with 1,431 more rows
…
